<?xml version="1.0" encoding="UTF-8" standalone="no"?>
<svg
   xmlns:dc="http://purl.org/dc/elements/1.1/"
   xmlns:cc="http://creativecommons.org/ns#"
   xmlns:rdf="http://www.w3.org/1999/02/22-rdf-syntax-ns#"
   xmlns:svg="http://www.w3.org/2000/svg"
   xmlns="http://www.w3.org/2000/svg"
   xmlns:sodipodi="http://sodipodi.sourceforge.net/DTD/sodipodi-0.dtd"
   xmlns:inkscape="http://www.inkscape.org/namespaces/inkscape"
   width="210mm"
   height="297mm"
   viewBox="0 0 210 297"
   version="1.1"
   id="svg8"
   inkscape:version="1.0.2 (e86c870879, 2021-01-15)"
   sodipodi:docname="logo.svg">
  <defs
     id="defs2" />
  <sodipodi:namedview
     id="base"
     pagecolor="#ffffff"
     bordercolor="#666666"
     borderopacity="1.0"
     inkscape:pageopacity="0.0"
     inkscape:pageshadow="2"
     inkscape:zoom="0.54480219"
     inkscape:cx="537.61874"
     inkscape:cy="645.3465"
     inkscape:document-units="mm"
     inkscape:current-layer="layer1"
     inkscape:document-rotation="0"
     showgrid="false"
     inkscape:window-width="1200"
     inkscape:window-height="714"
     inkscape:window-x="0"
     inkscape:window-y="0"
     inkscape:window-maximized="1" />
  <metadata
     id="metadata5">
    <rdf:RDF>
      <cc:Work
         rdf:about="">
        <dc:format>image/svg+xml</dc:format>
        <dc:type
           rdf:resource="http://purl.org/dc/dcmitype/StillImage" />
        <dc:title />
      </cc:Work>
    </rdf:RDF>
  </metadata>
  <g
     inkscape:label="Layer 1"
     inkscape:groupmode="layer"
     id="layer1">
    <text
       xml:space="preserve"
       style="font-style:italic;font-variant:normal;font-weight:600;font-stretch:condensed;font-size:22.9306px;line-height:1.25;font-family:'Artegra Sans Condensed';-inkscape-font-specification:'Artegra Sans Condensed, Semi-Bold Italic Condensed';word-spacing:0px;fill:#1d4ed8;fill-opacity:1;stroke-width:3.05088"
       x="53.540512"
       y="226.74158"
       id="text12"><tspan
         sodipodi:role="line"
         id="tspan10"
         x="53.540512"
         y="226.74158"
         style="font-style:italic;font-variant:normal;font-weight:bold;font-stretch:condensed;font-size:22.9306px;font-family:'Artegra Sans Condensed';-inkscape-font-specification:'Artegra Sans Condensed, Bold Italic Condensed';fill:#1d4ed8;fill-opacity:1;stroke-width:3.05088"><tspan
   style="fill:#374151"
   id="tspan42">∕∕</tspan>Stitched</tspan></text>
    <text
       xml:space="preserve"
       style="font-style:italic;font-variant:normal;font-weight:600;font-stretch:normal;font-size:22.9306px;line-height:1.25;font-family:'Artegra Sans';-inkscape-font-specification:'Artegra Sans Semi-Bold Italic';word-spacing:0px;fill:#374151;fill-opacity:1;stroke-width:0.264583"
       x="40.782009"
       y="16.974018"
       id="text19"><tspan
         sodipodi:role="line"
         id="tspan17"
         x="40.782009"
         y="16.974018"
         style="font-style:italic;font-variant:normal;font-weight:600;font-stretch:normal;font-size:22.9306px;font-family:'Artegra Sans';-inkscape-font-specification:'Artegra Sans Semi-Bold Italic';fill:#374151;fill-opacity:1;stroke-width:0.264583">∕∕Stitched</tspan></text>
    <text
       xml:space="preserve"
       style="font-style:italic;font-variant:normal;font-weight:bold;font-stretch:normal;font-size:22.9306px;line-height:1.25;font-family:'Artegra Sans';-inkscape-font-specification:'Artegra Sans Bold Italic';word-spacing:0px;fill:#374151;fill-opacity:1;stroke-width:0.264583"
       x="40.782009"
       y="51.935276"
       id="text31"><tspan
         sodipodi:role="line"
         id="tspan29"
         x="40.782009"
         y="51.935276"
         style="font-style:italic;font-variant:normal;font-weight:bold;font-stretch:normal;font-size:22.9306px;font-family:'Artegra Sans Alt';-inkscape-font-specification:'Artegra Sans Alt Bold Italic';fill:#374151;fill-opacity:1;stroke-width:0.264583">∕∕Stitched</tspan></text>
    <text
       xml:space="preserve"
       style="font-style:italic;font-variant:normal;font-weight:bold;font-stretch:normal;font-size:22.9306px;line-height:1.25;font-family:'Artegra Sans';-inkscape-font-specification:'Artegra Sans Bold Italic';word-spacing:0px;fill:#374151;fill-opacity:1;stroke-width:0.264583"
       x="53.540512"
       y="261.70282"
       id="text35"><tspan
         sodipodi:role="line"
         id="tspan33"
         x="53.540512"
         y="261.70282"
         style="font-style:italic;font-variant:normal;font-weight:bold;font-stretch:normal;font-size:22.9306px;font-family:'Artegra Sans Condensed Alt';-inkscape-font-specification:'Artegra Sans Condensed Alt Bold Italic';fill:#374151;fill-opacity:1;stroke-width:0.264583"><tspan
   style="fill:#1d4ed8;fill-opacity:1"
   id="tspan858">∕∕</tspan>Stitched</tspan></text>
    <text
       xml:space="preserve"
       style="font-style:italic;font-variant:normal;font-weight:bold;font-stretch:normal;font-size:22.9306px;line-height:1.25;font-family:'Artegra Sans SC';-inkscape-font-specification:'Artegra Sans SC Bold Italic';word-spacing:0px;stroke-width:0.264583;fill:#374151;fill-opacity:1;"
       x="40.782009"
       y="86.896538"
       id="text39"><tspan
         sodipodi:role="line"
         id="tspan37"
         x="40.782009"
         y="86.896538"
         style="font-style:italic;font-variant:normal;font-weight:bold;font-stretch:normal;font-size:22.9306px;font-family:'Artegra Sans SC';-inkscape-font-specification:'Artegra Sans SC Bold Italic';stroke-width:0.264583;fill:#374151;fill-opacity:1;">∕∕Stitched</tspan></text>
    <text
       xml:space="preserve"
       style="font-style:italic;font-variant:normal;font-weight:bold;font-stretch:normal;font-size:22.9306px;line-height:1.25;font-family:'Artegra Sans Condensed SC';-inkscape-font-specification:'Artegra Sans Condensed SC Bold Italic';word-spacing:0px;fill:#374151;fill-opacity:1;stroke-width:0.264583"
       x="53.540512"
       y="296.66409"
       id="text43"><tspan
         sodipodi:role="line"
         id="tspan41"
         x="53.540512"
         y="296.66409"
         style="font-style:italic;font-variant:normal;font-weight:bold;font-stretch:normal;font-size:22.9306px;font-family:'Artegra Sans Condensed SC';-inkscape-font-specification:'Artegra Sans Condensed SC Bold Italic';fill:#374151;fill-opacity:1;stroke-width:0.264583"><tspan
   style="fill:#1d4ed8;fill-opacity:1"
   id="tspan856">∕∕</tspan>Stitched</tspan></text>
    <text
       xml:space="preserve"
       style="font-style:italic;font-variant:normal;font-weight:bold;font-stretch:normal;font-size:22.9306px;line-height:1.25;font-family:'Artegra Sans Extended';-inkscape-font-specification:'Artegra Sans Extended Bold Italic';word-spacing:0px;fill:#374151;fill-opacity:1;stroke-width:0.264583"
       x="40.782009"
       y="121.8578"
       id="text47"><tspan
         sodipodi:role="line"
         id="tspan45"
         x="40.782009"
         y="121.8578"
         style="font-style:italic;font-variant:normal;font-weight:bold;font-stretch:normal;font-size:22.9306px;font-family:'Artegra Sans Extended';-inkscape-font-specification:'Artegra Sans Extended Bold Italic';fill:#374151;fill-opacity:1;stroke-width:0.264583">∕∕Stitched</tspan></text>
    <text
       xml:space="preserve"
       style="font-style:italic;font-variant:normal;font-weight:bold;font-stretch:normal;font-size:22.9306px;line-height:1.25;font-family:'Artegra Sans Extended Alt';-inkscape-font-specification:'Artegra Sans Extended Alt Bold Italic';word-spacing:0px;fill:#374151;fill-opacity:1;stroke-width:0.264583"
       x="40.782009"
       y="156.81906"
       id="text51"><tspan
         sodipodi:role="line"
         id="tspan49"
         x="40.782009"
         y="156.81906"
         style="font-style:italic;font-variant:normal;font-weight:bold;font-stretch:normal;font-size:22.9306px;font-family:'Artegra Sans Extended Alt';-inkscape-font-specification:'Artegra Sans Extended Alt Bold Italic';fill:#374151;fill-opacity:1;stroke-width:0.264583">∕∕Stitched</tspan></text>
    <text
       xml:space="preserve"
       style="font-style:italic;font-variant:normal;font-weight:bold;font-stretch:normal;font-size:22.9306px;line-height:1.25;font-family:'Artegra Sans Extended SC';-inkscape-font-specification:'Artegra Sans Extended SC Bold Italic';word-spacing:0px;fill:#374151;fill-opacity:1;stroke-width:0.264583"
       x="40.782009"
       y="191.78032"
       id="text55"><tspan
         sodipodi:role="line"
         id="tspan53"
         x="40.782009"
         y="191.78032"
         style="font-style:italic;font-variant:normal;font-weight:bold;font-stretch:normal;font-size:22.9306px;font-family:'Artegra Sans Extended SC';-inkscape-font-specification:'Artegra Sans Extended SC Bold Italic';fill:#374151;fill-opacity:1;stroke-width:0.264583">∕∕Stitched</tspan></text>
    <text
       xml:space="preserve"
       style="font-style:italic;font-variant:normal;font-weight:bold;font-stretch:normal;font-size:10.5833px;line-height:1.25;font-family:'Artegra Sans';-inkscape-font-specification:'Artegra Sans Bold Italic';word-spacing:0px;stroke-width:0.264583"
       x="8.7055407"
       y="41.62603"
       id="text864"><tspan
         sodipodi:role="line"
         id="tspan862"
         x="8.7055407"
         y="41.62603"
         style="font-style:italic;font-variant:normal;font-weight:bold;font-stretch:normal;font-family:'Artegra Sans';-inkscape-font-specification:'Artegra Sans Bold Italic';stroke-width:0.264583" /></text>
    <text
       xml:space="preserve"
       style="font-style:normal;font-variant:normal;font-weight:600;font-stretch:normal;font-size:22.9306px;line-height:1.25;font-family:Raleway;-inkscape-font-specification:'Raleway Semi-Bold';word-spacing:0px;fill:#374151;fill-opacity:1;stroke-width:0.264583"
       x="-95.392281"
       y="226.74158"
       id="text58"><tspan
         sodipodi:role="line"
         id="tspan56"
         x="-95.392281"
         y="226.74158"
         style="font-style:normal;font-variant:normal;font-weight:bold;font-stretch:normal;font-size:22.9306px;font-family:Raleway;-inkscape-font-specification:'Raleway Bold';fill:#374151;fill-opacity:1;stroke-width:0.264583">Stitch<tspan
   style="font-style:normal;font-variant:normal;font-weight:bold;font-stretch:normal;font-family:Raleway;-inkscape-font-specification:'Raleway Bold';fill:#1d4ed8;fill-opacity:1"
   id="tspan54">∕</tspan>Stitch</tspan></text>
    <text
       xml:space="preserve"
       style="font-style:italic;font-variant:normal;font-weight:bold;font-stretch:normal;font-size:22.9306px;line-height:1.25;font-family:'Artegra Sans';-inkscape-font-specification:'Artegra Sans Bold Italic';word-spacing:0px;fill:#374151;fill-opacity:1;stroke-width:0.264583"
       x="-80.5756"
       y="296.66409"
       id="text66"><tspan
         sodipodi:role="line"
         id="tspan64"
         x="-80.5756"
         y="296.66409"
         style="font-style:normal;font-variant:normal;font-weight:600;font-stretch:condensed;font-size:22.9306px;font-family:'Artegra Sans Condensed Alt';-inkscape-font-specification:'Artegra Sans Condensed Alt Semi-Bold Condensed';fill:#374151;fill-opacity:1;stroke-width:0.264583">Stitch<tspan
   style="font-style:normal;font-variant:normal;font-weight:600;font-stretch:condensed;font-family:'Artegra Sans Condensed Alt';-inkscape-font-specification:'Artegra Sans Condensed Alt Semi-Bold Condensed';fill:#1d4ed8;fill-opacity:1"
   id="tspan62">∕</tspan>Stitch</tspan></text>
  </g>
</svg>
